<?xml version="1.0" encoding="utf-8"?>
<!-- Generator: Adobe Illustrator 22.1.0, SVG Export Plug-In . SVG Version: 6.00 Build 0)  -->
<svg version="1.1" id="Layer_1" xmlns="http://www.w3.org/2000/svg" xmlns:xlink="http://www.w3.org/1999/xlink" x="0px" y="0px"
	 viewBox="0 0 28 28" style="enable-background:new 0 0 28 28;" xml:space="preserve">
<style type="text/css">
	.st0{opacity:0.5;fill:#B9F2F7;}
	.st1{fill:#30305B;}
</style>
<path class="st0" d="M14,28C6.3,28,0,21.7,0,14S6.3,0,14,0s14,6.3,14,14S21.7,28,14,28z M14,2C7.4,2,2,7.4,2,14c0,6.6,5.4,12,12,12
	c6.6,0,12-5.4,12-12C26,7.4,20.6,2,14,2z"/>
<path class="st1" d="M14.9,7.3h-1.7l-5.4,5.4v2.1h1.3v5h9.8v-5h1.3v-2.1L14.9,7.3z M14.6,18.5h-1.1v-2.7h1.1V18.5z M19,13.5h-1.3v5
	h-1.8v-3.9h-3.6v3.9h-1.8v-5H9v-0.3l4.7-4.7h0.7l4.7,4.7V13.5z"/>
</svg>
